SequenceID      #Exons     #Introns   AvgExonLength   AvgIntronLeng   %A in Exon    %C in Exon    %G in Exon    %T in Exon    %A in Intron  %C in Intron  %G in Intron  %T in Intron 
HCN1            8          7          1241.625        61642.8571      30.2527       20.2154       20.004        29.5278       32.0992       16.9384       17.6943       33.2751      
HCN2            8          7          427.5           3408.4286       15.117        38.7135       32.1053       14.0643       17.528        28.8067       33.3627       20.4242      
KCNA1           2          1          1309.0          4062.0          27.7311       24.4079       21.2758       26.5852       28.5327       21.0734       20.9503       30.1822      
KCNA2           5          4          391.8           8984.0          24.4002       26.9015       24.196        24.5023       25.5148       23.2274       23.4472       27.894       
KCNS3           3          2          780.3333        25975.5         23.8787       23.9641       25.5446       26.6126       25.3816       19.2759       21.9341       33.4662      
KIR3            3          2          209.3333        1668.0          20.5414       30.0955       25.0          24.3631       32.3141       20.6535       27.9077       20.024       
